{
    "parent": "block/cube",
    "textures": {
       "down": "jcmod:blocks/wood_slat_jungle_middle",
       "up": "jcmod:blocks/wood_slat_jungle_middle",
       "north": "jcmod:blocks/wood_slat_jungle_top",
       "south": "jcmod:blocks/wood_slat_jungle_top",
       "east": "jcmod:blocks/wood_slat_jungle_top",
       "west": "jcmod:blocks/wood_slat_jungle_top"
    }
}