{
    "parent": "block/cube",
    "textures": {        
       "down": "jcmod:blocks/wood_slat_acacia_middle",
       "up": "jcmod:blocks/wood_slat_acacia_middle",
       "north": "jcmod:blocks/wood_slat_acacia_bottom",
       "south": "jcmod:blocks/wood_slat_acacia_bottom",
       "east": "jcmod:blocks/wood_slat_acacia_bottom",
       "west": "jcmod:blocks/wood_slat_acacia_bottom"
    }
}